[gd_scene load_steps=6 format=2]

[ext_resource path="res://blokoj/title_screen/Item_Icons/Задачи1.png" type="Texture" id=1]
[ext_resource path="res://blokoj/title_screen/Menu/fonts/18957.otf" type="DynamicFontData" id=3]
[ext_resource path="res://blokoj/title_screen/Menu/fonts/Buttons_stylel.tres" type="StyleBox" id=4]
[ext_resource path="res://blokoj/title_screen/Menu/Scripts/StartGame.gd" type="Script" id=5]


[sub_resource type="DynamicFont" id=1]
font_data = ExtResource( 3 )

[node name="Task" type="Button"]
margin_left = 20.0
margin_top = 49.0
margin_right = 72.0
margin_bottom = 101.0
custom_styles/focus = ExtResource( 4 )
custom_fonts/font = SubResource( 1 )
icon = ExtResource( 1 )
script = ExtResource( 5 )
__meta__ = {
"_edit_group_": true,
"_edit_use_anchors_": false
}
load_scene = "res://blokoj/title_screen/Menu/scene/Tasks.tscn"
