[gd_scene load_steps=3 format=2]

[ext_resource path="res://blokoj/kosmostacio/kosmostacio.jpg" type="Texture" id=1]
[ext_resource path="res://blokoj/kosmostacio/Kosmostacio.gd" type="Script" id=2]

[node name="Node2D" type="Node2D"]
script = ExtResource( 2 )

[node name="ParallaxBackground" type="ParallaxBackground" parent="."]
follow_viewport_enable = true

[node name="TextureRect" type="TextureRect" parent="ParallaxBackground"]
anchor_right = 1.0
anchor_bottom = 1.0
texture = ExtResource( 1 )
expand = true
__meta__ = {
"_edit_use_anchors_": false
}

[node name="Status" type="Label" parent="ParallaxBackground"]
margin_left = 506.452
margin_top = 568.444
margin_right = 608.452
margin_bottom = 580.444
text = "asdasdas"
__meta__ = {
"_edit_use_anchors_": false
}
