[gd_scene load_steps=7 format=2]

[ext_resource path="res://blokoj/title_screen/Menu/scene/Scene_page.tscn" type="PackedScene" id=1]
[ext_resource path="res://blokoj/title_screen/Menu/Scripts/server.gd" type="Script" id=2]
[ext_resource path="res://blokoj/title_screen/Item_Icons/mining_icon1.png" type="Texture" id=3]
[ext_resource path="res://blokoj/title_screen/Menu/Scripts/mining.gd" type="Script" id=4]
[ext_resource path="res://blokoj/title_screen/Menu/fonts/new_dynamicfont.tres" type="DynamicFont" id=5]
[ext_resource path="res://blokoj/title_screen/Menu/fonts/Buttons_stylel.tres" type="StyleBox" id=6]

[node name="Options" instance=ExtResource( 1 )]
script = ExtResource( 2 )

[node name="Label" parent="." index="0"]
text = "Server  Scene"

[node name="OutputArea" type="TextEdit" parent="." index="1"]
margin_left = 198.0
margin_top = 193.0
margin_right = 843.0
margin_bottom = 557.0
readonly = true
__meta__ = {
"_edit_use_anchors_": false
}

[node name="Mining" type="Button" parent="." index="2"]
margin_left = 61.961
margin_top = 6.08759
margin_right = 113.961
margin_bottom = 52.0876
hint_tooltip = "Запустить добычу руды"
custom_styles/focus = ExtResource( 6 )
custom_fonts/font = ExtResource( 5 )
icon = ExtResource( 3 )
script = ExtResource( 4 )
__meta__ = {
"_edit_use_anchors_": false
}
[connection signal="tree_entered" from="." to="." method="_on_Options_tree_entered"]
[connection signal="tree_exiting" from="." to="." method="_on_Options_tree_exiting"]
[connection signal="pressed" from="Mining" to="Mining" method="_on_MiningButton_pressed"]
